{
    "HitShapes": {
        "HitBoxes": [
            {
                "X1": -5.0,
                "Y1": -6.0,
                "X2":  6.0,
                "Y2":  11.0
            }
        ]
    }
}

