{
    "HitShapes": {
        "HitBoxes": [
            {
                "X1":  -5.0,
                "Y1":  -9.0,
                "X2":   7.0,
                "Y2":   0.0
            },
            {
                "X1":  -3.0,
                "Y1":   1.0,
                "X2":   5.0,
                "Y2":   3.0
            }
        ]
    }
}
